Rank,Address,Name Tag,Balance,Percentage,Txn Count
1,0x00000000219ab540356cbb839cbe05303d7705fa,Eth2 Deposit Contract,"12,324,818.000069 Ether",10.36311940%,"195,639"
2,0xc02aaa39b223fe8d0a0e5c4f27ead9083c756cc2,Wrapped Ether,"5,895,206.59003811 Ether",4.95688697%,"7,608,217"
3,0xda9dfa130df4de4673b89022ee50ff26f6ea73cf,Kraken 13,"2,113,030.00243456 Ether",1.77670633%,65
4,0xbe0eb53f46cd790cd13851d5eff43d12404d33e8,Binance 7,"1,996,008.28377982 Ether",1.67831056%,"1,088"
5,0x73bceb1cd57c711feac4224d062b0f6ff338501e,,"1,900,504.52600949 Ether",1.59800780%,485
6,0x9bf4001d307dfd62b26a2f1307ee0c0307632d59,,"1,490,000.0180927 Ether",1.25284187%,103
7,0x4ddc2d193948926d02f9b1fe9e1daa0718270ed5,Compound: cETH Token,"929,595.20377268 Ether",0.78163475%,"274,282"
8,0x61edcdf5bb737adffe5043706e7c5bb1f1a56eea,Gemini 3,"929,498.95358134 Ether",0.78155382%,336
9,0xdc24316b9ae028f1497c275eb9192a3ea0f67022,Lido: Curve Liquidity Farming Pool Contract,"811,014.90985 Ether",0.68192848%,"34,819"
10,0x011b6e24ffb0b5f5fcc564cf4183c5bbbc96d515,Arbitrum: Bridge,"620,352.67411678 Ether",0.52161329%,50
11,0x1b3cb81e51011b549d78bf720b0d924ac763a7c2,,"505,999.999225 Ether",0.42546173%,188
12,0xe92d1a43df510f82c66382592a047d288f85226f,,"450,000.05008572 Ether",0.37837510%,80
13,0x742d35cc6634c0532925a3b844bc454e4438f44e,Bitfinex 2,"448,334.95038893 Ether",0.37697503%,"15,270"
14,0x07ee55aa48bb72dcc6e9d78256648910de513eca,Gemini: Contract 1,"420,593.21819384 Ether",0.35364885%,"1,029"
15,0x8484ef722627bf18ca5ae6bcf031c23e6e922b30,Polygon (Matic): Ether Bridge,"390,405.19838473 Ether",0.32826575%,67
16,0xdf9eb223bafbe5c5271415c75aecd68c21fe3d7f,Liquity: Active Pool,"365,080.21386073 Ether",0.30697166%,55
17,0x0548f59fee79f8832c299e01dca5c76f034f558e,OTC: 0x054...58e,"363,284.5548212 Ether",0.30546181%,"8,552"
18,0xde0b295669a9fd93d5f28d9ec85e40f4cb697bae,EthDev,"351,769.04435226 Ether",0.29577918%,912
19,0xc098b2a3aa256d2140208c3de6543aaef5cd3a94,FTX Exchange 2,"350,442.58719417 Ether",0.29466385%,"2,564,112"
20,0xca8fa8f0b631ecdb18cda619c4fc9d197c8affca,,"325,000.48001707 Ether",0.27327128%,71
21,0x220866b1a2219f40e72f5c628b65d54268ca3a9d,Vb 3,"320,000.92186839 Ether",0.26906748%,80
22,0xa929022c9107643515f5c777ce9a910f0d1e490c,HECO Chain: Bridge,"311,863.61467248 Ether",0.26222536%,"18,005"
23,0xa7efae728d2936e78bda97dc267687568dd593f3,OKEx 3,"309,016.30332316 Ether",0.25983125%,"1,356,970"
24,0x3bfc20f0b9afcace800d73d2191166ff16540258,Polkadot: MultiSig,"306,276.63536139 Ether",0.25752764%,171
25,0x8103683202aa8da10536036edef04cdd865c225e,,"275,000.02741999 Ether",0.23122923%,31
26,0xf977814e90da44bfa03b6295a0616a897441acec,Binance 8,"261,758.57998286 Ether",0.22009537%,"8,072"
27,0x176f3dab24a159341c0509bb36b833e7fdd0a132,,"259,646.55704085 Ether",0.21831951%,118
28,0x0a4c79ce84202b03e95b7a692e5d728d83c44c76,,"254,248.45401694 Ether",0.21378061%,35
29,0x2b6ed29a95753c3ad948348e3e7b1a251080ffb9,,"250,000.01704597 Ether",0.21020838%,37
30,0x2faf487a4414fe77e2327f0bf4ae2a264a776ad2,FTX Exchange,"248,345.31199853 Ether",0.20881705%,"4,103,598"
31,0x9acb5ce4878144a74eeededa54c675aa59e0d3d2,,"245,836.4809452 Ether",0.20670754%,3
32,0xcffad3200574698b78f32232aa9d63eabd290703,,"243,996.60998265 Ether",0.20516051%,"1,102"
33,0x9845e1909dca337944a0272f1f9f7249833d2d19,,"230,001.21827349 Ether",0.19339272%,31
34,0x189b9cbd4aff470af2c0102f365fc1823d857965,,"225,749.39662066 Ether",0.18981765%,"1,233"
35,0xbddf00563c9abd25b576017f08c46982012f12be,,"221,940.616614 Ether",0.18661510%,258
36,0x1db92e2eebc8e0c075a02bea49a2935bcd2dfcf4,,"215,570.51639156 Ether",0.18125890%,"132,371"
37,0x59448fe20378357f206880c58068f095ae63d5a5,Bitfinex 9,"215,368.75591044 Ether",0.18108926%,28
38,0x2769ca791be3b386a68dec51534c654523a10546,,"202,874.40778927 Ether",0.17058359%,4
39,0x558553d54183a8542f7832742e7b4ba9c33aa1e6,Bithumb 12,"200,001.664584 Ether",0.16816809%,50
40,0x98ec059dc3adfbdd63429454aeb0c990fba4a128,OKEx 6,"200,000.10703597 Ether",0.16816678%,37
41,0x0c23fc0ef06716d2f8ba19bc4bed56d045581f2d,,"200,000.015 Ether",0.16816671%,42
42,0x78605df79524164911c144801f41e9811b7db73d,BitDAO: Treasury,"197,200.75847312 Ether",0.16581300%,48
43,0xcdbf58a9a9b54a2c43800c50c7192946de858321,,"193,799.07496 Ether",0.16295275%,70
44,0xa160cdab225685da1d56aa342ad8841c3b53f291,Tornado.Cash: 100 ETH,"189,300 Ether",0.15916977%,"8,384"
45,0x19184ab45c40c2920b0e0e31413b9434abd243ed,,"188,657.01497707 Ether",0.15862913%,289
46,0x66f820a414680b5bcda5eeca5dea238543f42054,Bittrex 3,"188,508.65226678 Ether",0.15850438%,182
47,0xbf3aeb96e164ae67e763d9e050ff124e7c3fdd28,,"187,068.19559 Ether",0.15729320%,30
48,0xb8808f9e9b88497ec522304055cd537a0913f6a0,,"185,852.59372197 Ether",0.15627108%,43
49,0xf774da4418c6dca3051f0e7570829b24214e730b,,"184,910.82022708 Ether",0.15547921%,146
50,0x36a85757645e8e8aec062a1dee289c7d615901ca,Bitfinex 10,"177,328.30765968 Ether",0.14910357%,26
51,0xd69b0089d9ca950640f5dc9931a41a5965f00303,Gemini 7,"172,473.37564514 Ether",0.14502139%,98
52,0xa7e4fecddc20d83f36971b67e13f1abc98dfcfa6,,"172,038.06719675 Ether",0.14465536%,80
53,0xdc1487e092caba080c6badafaa75a58ce7a2ec34,,"170,371.28928531 Ether",0.14325388%,228
54,0x5b5b69f4e0add2df5d2176d7dbd20b4897bc7ec4,,"169,031.99351958 Ether",0.14212776%,43
55,0x25eaff5b179f209cf186b1cdcbfa463a69df4c45,Blockfolio,"167,486.08157597 Ether",0.14082790%,"194,443"
56,0x7da82c7ab4771ff031b66538d2fb9b0b047f6cf9,Golem: Multisig,"167,034.34311324 Ether",0.14044807%,490
57,0xb29380ffc20696729b7ab8d093fa1e2ec14dfe2b,,"164,044.07238002 Ether",0.13793375%,"14,196"
58,0x4399f61795d3e50096e236a6d31ab24470c99fd5,,"154,660.972372 Ether",0.13004412%,247
59,0x28c6c06298d514db089934071355e5743bf21d60,Binance 14,"154,486.07603932 Ether",0.12989706%,"6,194,476"
60,0xfd898a0f677e97a9031654fc79a27cb5e31da34a,,"150,000.1 Ether",0.12612510%,30
61,0x701c484bfb40ac628afa487b6082f084b14af0bd,,"150,000.001069 Ether",0.12612502%,31
62,0x4b4a011c420b91260a272afd91e54accdafdfc1d,,"150,000.001 Ether",0.12612502%,5
63,0xa8dcc0373822b94d7f57326be24ca67bafcaad6b,,"150,000.001 Ether",0.12612502%,5
64,0x367989c660881e1ca693730f7126fe0ffc0963fb,,"150,000.001 Ether",0.12612502%,5
65,0x0ff64c53d295533a37f913bb78be9e2adc78f5fe,,"150,000.0000911 Ether",0.12612502%,6
66,0x844ada2ed8ecd77a1a9c72912df0fcb8b8c495a7,,"150,000 Ether",0.12612502%,6
67,0x9c2fc4fc75fa2d7eb5ba9147fa7430756654faa9,,"150,000 Ether",0.12612502%,6
68,0xb20411c403687d1036e05c8a7310a0f218429503,,"150,000 Ether",0.12612502%,4
69,0x9a1ed80ebc9936cee2d3db944ee6bd8d407e7f9f,,"150,000 Ether",0.12612502%,37
70,0xb8cda067fabedd1bb6c11c626862d7255a2414fe,,"150,000 Ether",0.12612502%,4
71,0xb9fa6e54025b4f0829d8e1b42e8b846914659632,,"150,000 Ether",0.12612502%,4
72,0xba18ded5e0d604a86428282964ae0bb249ceb9d0,,"150,000 Ether",0.12612502%,4
73,0xfe01a216234f79cfc3bea7513e457c6a9e50250d,,"150,000 Ether",0.12612502%,4
74,0x0c05ec4db907cfb91b2a1a29e7b86688b7568a6d,,"150,000 Ether",0.12612502%,4
75,0xc4cf565a5d25ee2803c9b8e91fc3d7c62e79fe69,,"150,000 Ether",0.12612502%,4
76,0xe04cf52e9fafa3d9bf14c407afff94165ef835f7,,"150,000 Ether",0.12612502%,4
77,0x77afe94859163abf0b90725d69e904ea91446c7b,,"150,000 Ether",0.12612502%,4
78,0x19d599012788b991ff542f31208bab21ea38403e,,"150,000 Ether",0.12612502%,4
79,0xca582d9655a50e6512045740deb0de3a7ee5281f,,"150,000 Ether",0.12612502%,4
80,0xd05e6bf1a00b5b4c9df909309f19e29af792422b,,"150,000 Ether",0.12612502%,4
81,0x0f00294c6e4c30d9ffc0557fec6c586e6f8c3935,,"150,000 Ether",0.12612502%,5
82,0xeb2b00042ce4522ce2d1aacee6f312d26c4eb9d6,,"150,000 Ether",0.12612502%,4
83,0x7ae92148e79d60a0749fd6de374c8e81dfddf792,,"150,000 Ether",0.12612502%,4
84,0x554f4476825293d4ad20e02b54aca13956acc40a,,"150,000 Ether",0.12612502%,4
85,0x9cf36e93a8e2b1eaaa779d9965f46c90b820048c,,"150,000 Ether",0.12612502%,4
86,0x4756eeebf378046f8dd3cb6fa908d93bfd45f139,,"150,000 Ether",0.12612502%,4
87,0x091933ee1088cdf5daace8baec0997a4e93f0dd6,,"150,000 Ether",0.12612502%,4
88,0xa0efb63be0db8fc11681a598bf351a42a6ff50e0,,"150,000 Ether",0.12612502%,4
89,0x8b83b9c4683aa4ec897c569010f09c6d04608163,,"150,000 Ether",0.12612502%,4
90,0x550cd530bc893fc6d2b4df6bea587f17142ab64e,,"150,000 Ether",0.12612502%,4
91,0x828103b231b39fffce028562412b3c04a4640e64,,"150,000 Ether",0.12612502%,5
92,0xe35b0ef92452c353dbb93775e0df97cedf873c72,,"150,000 Ether",0.12612502%,4
93,0x0518f5bb058f6215a0ff5f4df54dae832d734e04,,"150,000 Ether",0.12612502%,4
94,0x0e86733eab26cfcc04bb1752a62ec88e910b4cf5,,"150,000 Ether",0.12612502%,4
95,0xd6216fc19db775df9774a6e33526131da7d19a2c,KuCoin 6,"149,907.6353096 Ether",0.12604736%,"5,923"
96,0xd57479b8287666b44978255f1677e412d454d4f0,,"147,699.4245034 Ether",0.12419062%,4
97,0x4baf012726cb5ec7dda57bc2770798a38100c44d,,"145,000.09839497 Ether",0.12192093%,7
98,0x82b67b2e6997e13c072ddda72a2ea7a94ff411fc,,"139,716.37028482 Ether",0.11747820%,2
99,0x3262f13a39efaca789ae58390441c9ed76bc658a,,"138,498.04165199 Ether",0.11645379%,21
100,0xb5ab08d153218c1a6a5318b14eeb92df0fb168d6,,"135,283.676786 Ether",0.11375104%,280
